
Added: r1c1#1
size = 1

Added: r1c2#2
size = 2

Added: r1c3#3
size = 3

Added: r1c4#4
size = 4

Added: r1c5#5
size = 5

Added: r1c6#6
size = 6

Added: r1c7#7
size = 7

Added: r1c8#8
size = 8

Added: r1c9#9
size = 9

Added: r2c1#4
size = 10

Added: r2c2#5
size = 11

Added: r2c3#6
size = 12

Added: r2c4#1
size = 13

Added: r2c5#2
size = 14

Added: r2c6#3
size = 15


Removed: r2c6#3
size = 14

Added: r2c6#7
size = 15

Added: r2c7#3
size = 16


Removed: r2c7#3
size = 15


Removed: r2c6#7
size = 14

Added: r2c6#8
size = 15

Added: r2c7#3
size = 16


Removed: r2c7#3
size = 15


Removed: r2c6#8
size = 14

Added: r2c6#9
size = 15

Added: r2c7#3
size = 16


Removed: r2c7#3
size = 15


Removed: r2c6#9
size = 14


Removed: r2c5#2
size = 13

Added: r2c5#3
size = 14

Added: r2c6#2
size = 15


Removed: r2c6#2
size = 14

Added: r2c6#7
size = 15

Added: r2c7#2
size = 16


Removed: r2c7#2
size = 15


Removed: r2c6#7
size = 14

Added: r2c6#8
size = 15

Added: r2c7#2
size = 16


Removed: r2c7#2
size = 15


Removed: r2c6#8
size = 14

Added: r2c6#9
size = 15

Added: r2c7#2
size = 16


Removed: r2c7#2
size = 15


Removed: r2c6#9
size = 14


Removed: r2c5#3
size = 13

Added: r2c5#7
size = 14

Added: r2c6#2
size = 15

Added: r2c7#3
size = 16


Removed: r2c7#3
size = 15


Removed: r2c6#2
size = 14

Added: r2c6#3
size = 15

Added: r2c7#2
size = 16


Removed: r2c7#2
size = 15


Removed: r2c6#3
size = 14

Added: r2c6#8
size = 15

Added: r2c7#2
size = 16

Added: r2c8#3
size = 17


Removed: r2c8#3
size = 16


Removed: r2c7#2
size = 15

Added: r2c7#3
size = 16

Added: r2c8#2
size = 17


Removed: r2c8#2
size = 16


Removed: r2c7#3
size = 15


Removed: r2c6#8
size = 14

Added: r2c6#9
size = 15

Added: r2c7#2
size = 16

Added: r2c8#3
size = 17


Removed: r2c8#3
size = 16


Removed: r2c7#2
size = 15

Added: r2c7#3
size = 16

Added: r2c8#2
size = 17


Removed: r2c8#2
size = 16


Removed: r2c7#3
size = 15


Removed: r2c6#9
size = 14


Removed: r2c5#7
size = 13

Added: r2c5#8
size = 14

Added: r2c6#2
size = 15

Added: r2c7#3
size = 16


Removed: r2c7#3
size = 15


Removed: r2c6#2
size = 14

Added: r2c6#3
size = 15

Added: r2c7#2
size = 16


Removed: r2c7#2
size = 15


Removed: r2c6#3
size = 14

Added: r2c6#7
size = 15

Added: r2c7#2
size = 16

Added: r2c8#3
size = 17


Removed: r2c8#3
size = 16


Removed: r2c7#2
size = 15

Added: r2c7#3
size = 16

Added: r2c8#2
size = 17


Removed: r2c8#2
size = 16


Removed: r2c7#3
size = 15


Removed: r2c6#7
size = 14

Added: r2c6#9
size = 15

Added: r2c7#2
size = 16

Added: r2c8#3
size = 17


Removed: r2c8#3
size = 16


Removed: r2c7#2
size = 15

Added: r2c7#3
size = 16

Added: r2c8#2
size = 17


Removed: r2c8#2
size = 16


Removed: r2c7#3
size = 15


Removed: r2c6#9
size = 14


Removed: r2c5#8
size = 13

Added: r2c5#9
size = 14

Added: r2c6#2
size = 15

Added: r2c7#3
size = 16


Removed: r2c7#3
size = 15


Removed: r2c6#2
size = 14

Added: r2c6#3
size = 15

Added: r2c7#2
size = 16


Removed: r2c7#2
size = 15


Removed: r2c6#3
size = 14

Added: r2c6#7
size = 15

Added: r2c7#2
size = 16

Added: r2c8#3
size = 17


Removed: r2c8#3
size = 16


Removed: r2c7#2
size = 15

Added: r2c7#3
size = 16

Added: r2c8#2
size = 17


Removed: r2c8#2
size = 16


Removed: r2c7#3
size = 15


Removed: r2c6#7
size = 14

Added: r2c6#8
size = 15

Added: r2c7#2
size = 16

Added: r2c8#3
size = 17


Removed: r2c8#3
size = 16


Removed: r2c7#2
size = 15

Added: r2c7#3
size = 16

Added: r2c8#2
size = 17


Removed: r2c8#2
size = 16


Removed: r2c7#3
size = 15


Removed: r2c6#8
size = 14


Removed: r2c5#9
size = 13


Removed: r2c4#1
size = 12

Added: r2c4#2
size = 13

Added: r2c5#1
size = 14

Added: r2c6#3
size = 15


Removed: r2c6#3
size = 14

Added: r2c6#7
size = 15

Added: r2c7#3
size = 16


Removed: r2c7#3
size = 15


Removed: r2c6#7
size = 14

Added: r2c6#8
size = 15

Added: r2c7#3
size = 16


Removed: r2c7#3
size = 15


Removed: r2c6#8
size = 14

Added: r2c6#9
size = 15

Added: r2c7#3
size = 16


Removed: r2c7#3
size = 15


Removed: r2c6#9
size = 14


Removed: r2c5#1
size = 13

Added: r2c5#3
size = 14

Added: r2c6#1
size = 15


Removed: r2c6#1
size = 14

Added: r2c6#7
size = 15

Added: r2c7#1
size = 16


Removed: r2c7#1
size = 15


Removed: r2c6#7
size = 14

Added: r2c6#8
size = 15

Added: r2c7#1
size = 16


Removed: r2c7#1
size = 15


Removed: r2c6#8
size = 14

Added: r2c6#9
size = 15

Added: r2c7#1
size = 16


Removed: r2c7#1
size = 15


Removed: r2c6#9
size = 14


Removed: r2c5#3
size = 13

Added: r2c5#7
size = 14

Added: r2c6#1
size = 15

Added: r2c7#3
size = 16


Removed: r2c7#3
size = 15


Removed: r2c6#1
size = 14

Added: r2c6#3
size = 15

Added: r2c7#1
size = 16


Removed: r2c7#1
size = 15


Removed: r2c6#3
size = 14

Added: r2c6#8
size = 15

Added: r2c7#1
size = 16

Added: r2c8#3
size = 17


Removed: r2c8#3
size = 16


Removed: r2c7#1
size = 15

Added: r2c7#3
size = 16

Added: r2c8#1
size = 17


Removed: r2c8#1
size = 16


Removed: r2c7#3
size = 15


Removed: r2c6#8
size = 14

Added: r2c6#9
size = 15

Added: r2c7#1
size = 16

Added: r2c8#3
size = 17


Removed: r2c8#3
size = 16


Removed: r2c7#1
size = 15

Added: r2c7#3
size = 16

Added: r2c8#1
size = 17


Removed: r2c8#1
size = 16


Removed: r2c7#3
size = 15


Removed: r2c6#9
size = 14


Removed: r2c5#7
size = 13

Added: r2c5#8
size = 14

Added: r2c6#1
size = 15

Added: r2c7#3
size = 16


Removed: r2c7#3
size = 15


Removed: r2c6#1
size = 14

Added: r2c6#3
size = 15

Added: r2c7#1
size = 16


Removed: r2c7#1
size = 15


Removed: r2c6#3
size = 14

Added: r2c6#7
size = 15

Added: r2c7#1
size = 16

Added: r2c8#3
size = 17


Removed: r2c8#3
size = 16


Removed: r2c7#1
size = 15

Added: r2c7#3
size = 16

Added: r2c8#1
size = 17


Removed: r2c8#1
size = 16


Removed: r2c7#3
size = 15


Removed: r2c6#7
size = 14

Added: r2c6#9
size = 15

Added: r2c7#1
size = 16

Added: r2c8#3
size = 17


Removed: r2c8#3
size = 16


Removed: r2c7#1
size = 15

Added: r2c7#3
size = 16

Added: r2c8#1
size = 17


Removed: r2c8#1
size = 16


Removed: r2c7#3
size = 15


Removed: r2c6#9
size = 14


Removed: r2c5#8
size = 13

Added: r2c5#9
size = 14

Added: r2c6#1
size = 15

Added: r2c7#3
size = 16


Removed: r2c7#3
size = 15


Removed: r2c6#1
size = 14

Added: r2c6#3
size = 15

Added: r2c7#1
size = 16


Removed: r2c7#1
size = 15


Removed: r2c6#3
size = 14

Added: r2c6#7
size = 15

Added: r2c7#1
size = 16

Added: r2c8#3
size = 17


Removed: r2c8#3
size = 16


Removed: r2c7#1
size = 15

Added: r2c7#3
size = 16

Added: r2c8#1
size = 17


Removed: r2c8#1
size = 16


Removed: r2c7#3
size = 15


Removed: r2c6#7
size = 14

Added: r2c6#8
size = 15

Added: r2c7#1
size = 16

Added: r2c8#3
size = 17


Removed: r2c8#3
size = 16


Removed: r2c7#1
size = 15

Added: r2c7#3
size = 16

Added: r2c8#1
size = 17


Removed: r2c8#1
size = 16


Removed: r2c7#3
size = 15


Removed: r2c6#8
size = 14


Removed: r2c5#9
size = 13


Removed: r2c4#2
size = 12

Added: r2c4#3
size = 13

Added: r2c5#1
size = 14

Added: r2c6#2
size = 15


Removed: r2c6#2
size = 14

Added: r2c6#7
size = 15

Added: r2c7#2
size = 16


Removed: r2c7#2
size = 15


Removed: r2c6#7
size = 14

Added: r2c6#8
size = 15

Added: r2c7#2
size = 16


Removed: r2c7#2
size = 15


Removed: r2c6#8
size = 14

Added: r2c6#9
size = 15

Added: r2c7#2
size = 16


Removed: r2c7#2
size = 15


Removed: r2c6#9
size = 14


Removed: r2c5#1
size = 13

Added: r2c5#2
size = 14

Added: r2c6#1
size = 15


Removed: r2c6#1
size = 14

Added: r2c6#7
size = 15

Added: r2c7#1
size = 16


Removed: r2c7#1
size = 15


Removed: r2c6#7
size = 14

Added: r2c6#8
size = 15

Added: r2c7#1
size = 16


Removed: r2c7#1
size = 15


Removed: r2c6#8
size = 14

Added: r2c6#9
size = 15

Added: r2c7#1
size = 16


Removed: r2c7#1
size = 15


Removed: r2c6#9
size = 14


Removed: r2c5#2
size = 13

Added: r2c5#7
size = 14

Added: r2c6#1
size = 15

Added: r2c7#2
size = 16


Removed: r2c7#2
size = 15


Removed: r2c6#1
size = 14

Added: r2c6#2
size = 15

Added: r2c7#1
size = 16


Removed: r2c7#1
size = 15


Removed: r2c6#2
size = 14

Added: r2c6#8
size = 15

Added: r2c7#1
size = 16

Added: r2c8#2
size = 17


Removed: r2c8#2
size = 16


Removed: r2c7#1
size = 15

Added: r2c7#2
size = 16

Added: r2c8#1
size = 17


Removed: r2c8#1
size = 16


Removed: r2c7#2
size = 15


Removed: r2c6#8
size = 14

Added: r2c6#9
size = 15

Added: r2c7#1
size = 16

Added: r2c8#2
size = 17


Removed: r2c8#2
size = 16


Removed: r2c7#1
size = 15

Added: r2c7#2
size = 16

Added: r2c8#1
size = 17


Removed: r2c8#1
size = 16


Removed: r2c7#2
size = 15


Removed: r2c6#9
size = 14


Removed: r2c5#7
size = 13

Added: r2c5#8
size = 14

Added: r2c6#1
size = 15

Added: r2c7#2
size = 16


Removed: r2c7#2
size = 15


Removed: r2c6#1
size = 14

Added: r2c6#2
size = 15

Added: r2c7#1
size = 16


Removed: r2c7#1
size = 15


Removed: r2c6#2
size = 14

Added: r2c6#7
size = 15

Added: r2c7#1
size = 16

Added: r2c8#2
size = 17


Removed: r2c8#2
size = 16


Removed: r2c7#1
size = 15

Added: r2c7#2
size = 16

Added: r2c8#1
size = 17


Removed: r2c8#1
size = 16


Removed: r2c7#2
size = 15


Removed: r2c6#7
size = 14

Added: r2c6#9
size = 15

Added: r2c7#1
size = 16

Added: r2c8#2
size = 17


Removed: r2c8#2
size = 16


Removed: r2c7#1
size = 15

Added: r2c7#2
size = 16

Added: r2c8#1
size = 17


Removed: r2c8#1
size = 16


Removed: r2c7#2
size = 15


Removed: r2c6#9
size = 14


Removed: r2c5#8
size = 13

Added: r2c5#9
size = 14

Added: r2c6#1
size = 15

Added: r2c7#2
size = 16


Removed: r2c7#2
size = 15


Removed: r2c6#1
size = 14

Added: r2c6#2
size = 15

Added: r2c7#1
size = 16


Removed: r2c7#1
size = 15


Removed: r2c6#2
size = 14

Added: r2c6#7
size = 15

Added: r2c7#1
size = 16

Added: r2c8#2
size = 17


Removed: r2c8#2
size = 16


Removed: r2c7#1
size = 15

Added: r2c7#2
size = 16

Added: r2c8#1
size = 17


Removed: r2c8#1
size = 16


Removed: r2c7#2
size = 15


Removed: r2c6#7
size = 14

Added: r2c6#8
size = 15

Added: r2c7#1
size = 16

Added: r2c8#2
size = 17


Removed: r2c8#2
size = 16


Removed: r2c7#1
size = 15

Added: r2c7#2
size = 16

Added: r2c8#1
size = 17


Removed: r2c8#1
size = 16


Removed: r2c7#2
size = 15


Removed: r2c6#8
size = 14


Removed: r2c5#9
size = 13


Removed: r2c4#3
size = 12

Added: r2c4#7
size = 13

Added: r2c5#1
size = 14

Added: r2c6#2
size = 15

Added: r2c7#3
size = 16


Removed: r2c7#3
size = 15


Removed: r2c6#2
size = 14

Added: r2c6#3
size = 15

Added: r2c7#2
size = 16


Removed: r2c7#2
size = 15


Removed: r2c6#3
size = 14

Added: r2c6#8
size = 15

Added: r2c7#2
size = 16

Added: r2c8#3
size = 17


Removed: r2c8#3
size = 16


Removed: r2c7#2
size = 15

Added: r2c7#3
size = 16

Added: r2c8#2
size = 17


Removed: r2c8#2
size = 16


Removed: r2c7#3
size = 15


Removed: r2c6#8
size = 14

Added: r2c6#9
size = 15

Added: r2c7#2
size = 16

Added: r2c8#3
size = 17


Removed: r2c8#3
size = 16


Removed: r2c7#2
size = 15

Added: r2c7#3
size = 16

Added: r2c8#2
size = 17


Removed: r2c8#2
size = 16


Removed: r2c7#3
size = 15


Removed: r2c6#9
size = 14


Removed: r2c5#1
size = 13

Added: r2c5#2
size = 14

Added: r2c6#1
size = 15

Added: r2c7#3
size = 16


Removed: r2c7#3
size = 15


Removed: r2c6#1
size = 14

Added: r2c6#3
size = 15

Added: r2c7#1
size = 16


Removed: r2c7#1
size = 15


Removed: r2c6#3
size = 14

Added: r2c6#8
size = 15

Added: r2c7#1
size = 16

Added: r2c8#3
size = 17


Removed: r2c8#3
size = 16


Removed: r2c7#1
size = 15

Added: r2c7#3
size = 16

Added: r2c8#1
size = 17


Removed: r2c8#1
size = 16


Removed: r2c7#3
size = 15


Removed: r2c6#8
size = 14

Added: r2c6#9
size = 15

Added: r2c7#1
size = 16

Added: r2c8#3
size = 17


Removed: r2c8#3
size = 16


Removed: r2c7#1
size = 15

Added: r2c7#3
size = 16

Added: r2c8#1
size = 17


Removed: r2c8#1
size = 16


Removed: r2c7#3
size = 15


Removed: r2c6#9
size = 14


Removed: r2c5#2
size = 13

Added: r2c5#3
size = 14

Added: r2c6#1
size = 15

Added: r2c7#2
size = 16


Removed: r2c7#2
size = 15


Removed: r2c6#1
size = 14

Added: r2c6#2
size = 15

Added: r2c7#1
size = 16


Removed: r2c7#1
size = 15


Removed: r2c6#2
size = 14

Added: r2c6#8
size = 15

Added: r2c7#1
size = 16

Added: r2c8#2
size = 17


Removed: r2c8#2
size = 16


Removed: r2c7#1
size = 15

Added: r2c7#2
size = 16

Added: r2c8#1
size = 17


Removed: r2c8#1
size = 16


Removed: r2c7#2
size = 15


Removed: r2c6#8
size = 14

Added: r2c6#9
size = 15

Added: r2c7#1
size = 16

Added: r2c8#2
size = 17


Removed: r2c8#2
size = 16


Removed: r2c7#1
size = 15

Added: r2c7#2
size = 16

Added: r2c8#1
size = 17


Removed: r2c8#1
size = 16


Removed: r2c7#2
size = 15


Removed: r2c6#9
size = 14


Removed: r2c5#3
size = 13

Added: r2c5#8
size = 14

Added: r2c6#1
size = 15

Added: r2c7#2
size = 16

Added: r2c8#3
size = 17


Removed: r2c8#3
size = 16


Removed: r2c7#2
size = 15

Added: r2c7#3
size = 16

Added: r2c8#2
size = 17


Removed: r2c8#2
size = 16


Removed: r2c7#3
size = 15


Removed: r2c6#1
size = 14

Added: r2c6#2
size = 15

Added: r2c7#1
size = 16

Added: r2c8#3
size = 17


Removed: r2c8#3
size = 16


Removed: r2c7#1
size = 15

Added: r2c7#3
size = 16

Added: r2c8#1
size = 17


Removed: r2c8#1
size = 16


Removed: r2c7#3
size = 15


Removed: r2c6#2
size = 14

Added: r2c6#3
size = 15

Added: r2c7#1
size = 16

Added: r2c8#2
size = 17


Removed: r2c8#2
size = 16


Removed: r2c7#1
size = 15

Added: r2c7#2
size = 16

Added: r2c8#1
size = 17


Removed: r2c8#1
size = 16


Removed: r2c7#2
size = 15


Removed: r2c6#3
size = 14

Added: r2c6#9
size = 15

Added: r2c7#1
size = 16

Added: r2c8#2
size = 17

Added: r2c9#3
size = 18

Added: r3c1#7
size = 19

Added: r3c2#8
size = 20

Added: r3c3#9
size = 21

Added: r3c4#1
size = 22

Added: r3c5#2
size = 23

Added: r3c6#3
size = 24

Added: r3c7#4
size = 25

Added: r3c8#5
size = 26

Added: r3c9#6
size = 27

Added: r4c1#2
size = 28

Added: r4c2#1
size = 29

Added: r4c3#4
size = 30

Added: r4c4#3
size = 31

Added: r4c5#6
size = 32

Added: r4c6#5
size = 33

Added: r4c7#8
size = 34

Added: r4c8#7
size = 35


Removed: r4c8#7
size = 34

Added: r4c8#9
size = 35

Added: r4c9#7
size = 36

Added: r5c1#3
size = 37

Added: r5c2#6
size = 38

Added: r5c3#5
size = 39

Added: r5c4#2
size = 40

Added: r5c5#1
size = 41

Added: r5c6#4
size = 42


Removed: r5c6#4
size = 41

Added: r5c6#7
size = 42


Removed: r5c6#7
size = 41

Added: r5c6#8
size = 42


Removed: r5c6#8
size = 41


Removed: r5c5#1
size = 40

Added: r5c5#4
size = 41

Added: r5c6#1
size = 42


Removed: r5c6#1
size = 41

Added: r5c6#7
size = 42


Removed: r5c6#7
size = 41

Added: r5c6#8
size = 42


Removed: r5c6#8
size = 41


Removed: r5c5#4
size = 40

Added: r5c5#7
size = 41

Added: r5c6#1
size = 42


Removed: r5c6#1
size = 41

Added: r5c6#4
size = 42


Removed: r5c6#4
size = 41

Added: r5c6#8
size = 42


Removed: r5c6#8
size = 41


Removed: r5c5#7
size = 40

Added: r5c5#9
size = 41

Added: r5c6#1
size = 42


Removed: r5c6#1
size = 41

Added: r5c6#4
size = 42


Removed: r5c6#4
size = 41

Added: r5c6#7
size = 42


Removed: r5c6#7
size = 41

Added: r5c6#8
size = 42


Removed: r5c6#8
size = 41


Removed: r5c5#9
size = 40


Removed: r5c4#2
size = 39

Added: r5c4#8
size = 40

Added: r5c5#1
size = 41

Added: r5c6#2
size = 42


Removed: r5c6#2
size = 41

Added: r5c6#4
size = 42

Added: r5c7#2
size = 43


Removed: r5c7#2
size = 42


Removed: r5c6#4
size = 41

Added: r5c6#7
size = 42

Added: r5c7#2
size = 43

Added: r5c8#4
size = 44


Removed: r5c8#4
size = 43


Removed: r5c7#2
size = 42


Removed: r5c6#7
size = 41


Removed: r5c5#1
size = 40

Added: r5c5#4
size = 41

Added: r5c6#1
size = 42

Added: r5c7#2
size = 43


Removed: r5c7#2
size = 42


Removed: r5c6#1
size = 41

Added: r5c6#2
size = 42


Removed: r5c6#2
size = 41

Added: r5c6#7
size = 42

Added: r5c7#2
size = 43

Added: r5c8#1
size = 44


Removed: r5c8#1
size = 43


Removed: r5c7#2
size = 42


Removed: r5c6#7
size = 41


Removed: r5c5#4
size = 40

Added: r5c5#7
size = 41

Added: r5c6#1
size = 42

Added: r5c7#2
size = 43

Added: r5c8#4
size = 44


Removed: r5c8#4
size = 43


Removed: r5c7#2
size = 42


Removed: r5c6#1
size = 41

Added: r5c6#2
size = 42


Removed: r5c6#2
size = 41

Added: r5c6#4
size = 42

Added: r5c7#2
size = 43

Added: r5c8#1
size = 44


Removed: r5c8#1
size = 43


Removed: r5c7#2
size = 42


Removed: r5c6#4
size = 41


Removed: r5c5#7
size = 40

Added: r5c5#9
size = 41

Added: r5c6#1
size = 42

Added: r5c7#2
size = 43

Added: r5c8#4
size = 44


Removed: r5c8#4
size = 43


Removed: r5c7#2
size = 42


Removed: r5c6#1
size = 41

Added: r5c6#2
size = 42


Removed: r5c6#2
size = 41

Added: r5c6#4
size = 42

Added: r5c7#2
size = 43

Added: r5c8#1
size = 44


Removed: r5c8#1
size = 43


Removed: r5c7#2
size = 42


Removed: r5c6#4
size = 41

Added: r5c6#7
size = 42

Added: r5c7#2
size = 43

Added: r5c8#1
size = 44

Added: r5c9#4
size = 45

Added: r6c1#8
size = 46

Added: r6c2#7
size = 47


Removed: r6c2#7
size = 46

Added: r6c2#9
size = 47

Added: r6c3#7
size = 48

Added: r6c4#2
size = 49

Added: r6c5#1
size = 50

Added: r6c6#4
size = 51

Added: r6c7#3
size = 52

Added: r6c8#6
size = 53

Added: r6c9#5
size = 54

Added: r7c1#5
size = 55

Added: r7c2#3
size = 56

Added: r7c3#1
size = 57

Added: r7c4#6
size = 58

Added: r7c5#4
size = 59

Added: r7c6#2
size = 60

Added: r7c7#9
size = 61

Added: r7c8#7
size = 62

Added: r7c9#8
size = 63

Added: r8c1#6
size = 64

Added: r8c2#4
size = 65

Added: r8c3#2
size = 66

Added: r8c4#5
size = 67

Added: r8c5#3
size = 68

Added: r8c6#1
size = 69


Removed: r8c6#1
size = 68

Added: r8c6#8
size = 69


Removed: r8c6#8
size = 68


Removed: r8c5#3
size = 67

Added: r8c5#7
size = 68

Added: r8c6#1
size = 69


Removed: r8c6#1
size = 68

Added: r8c6#8
size = 69


Removed: r8c6#8
size = 68


Removed: r8c5#7
size = 67


Removed: r8c4#5
size = 66

Added: r8c4#9
size = 67

Added: r8c5#3
size = 68

Added: r8c6#1
size = 69

Added: r8c7#5
size = 70


Removed: r8c7#5
size = 69


Removed: r8c6#1
size = 68

Added: r8c6#8
size = 69

Added: r8c7#5
size = 70


Removed: r8c7#5
size = 69


Removed: r8c6#8
size = 68


Removed: r8c5#3
size = 67

Added: r8c5#7
size = 68

Added: r8c6#1
size = 69

Added: r8c7#5
size = 70

Added: r8c8#3
size = 71


Removed: r8c8#3
size = 70


Removed: r8c7#5
size = 69


Removed: r8c6#1
size = 68

Added: r8c6#8
size = 69

Added: r8c7#5
size = 70

Added: r8c8#3
size = 71

Added: r8c9#1
size = 72

Added: r9c1#9
size = 73

Added: r9c2#7
size = 74

Added: r9c3#8
size = 75

Added: r9c4#5
size = 76

Added: r9c5#3
size = 77

Added: r9c6#1
size = 78

Added: r9c7#6
size = 79

Added: r9c8#4
size = 80

Added: r9c9#2
size = 81
DDDDDDDDDDDDDDDDDDDDDDDDDDDDDDDDDDDDDDDDDDDD 81


Removed: r9c9#2
size = 80


Removed: r9c8#4
size = 79


Removed: r9c7#6
size = 78


Removed: r9c6#1
size = 77


Removed: r9c5#3
size = 76


Removed: r9c4#5
size = 75


Removed: r9c3#8
size = 74


Removed: r9c2#7
size = 73


Removed: r9c1#9
size = 72


Removed: r8c9#1
size = 71


Removed: r8c8#3
size = 70


Removed: r8c7#5
size = 69


Removed: r8c6#8
size = 68


Removed: r8c5#7
size = 67


Removed: r8c4#9
size = 66


Removed: r8c3#2
size = 65


Removed: r8c2#4
size = 64


Removed: r8c1#6
size = 63


Removed: r7c9#8
size = 62


Removed: r7c8#7
size = 61


Removed: r7c7#9
size = 60


Removed: r7c6#2
size = 59


Removed: r7c5#4
size = 58


Removed: r7c4#6
size = 57


Removed: r7c3#1
size = 56


Removed: r7c2#3
size = 55


Removed: r7c1#5
size = 54


Removed: r6c9#5
size = 53


Removed: r6c8#6
size = 52


Removed: r6c7#3
size = 51


Removed: r6c6#4
size = 50


Removed: r6c5#1
size = 49


Removed: r6c4#2
size = 48


Removed: r6c3#7
size = 47


Removed: r6c2#9
size = 46


Removed: r6c1#8
size = 45


Removed: r5c9#4
size = 44


Removed: r5c8#1
size = 43


Removed: r5c7#2
size = 42


Removed: r5c6#7
size = 41


Removed: r5c5#9
size = 40


Removed: r5c4#8
size = 39


Removed: r5c3#5
size = 38


Removed: r5c2#6
size = 37


Removed: r5c1#3
size = 36


Removed: r4c9#7
size = 35


Removed: r4c8#9
size = 34


Removed: r4c7#8
size = 33


Removed: r4c6#5
size = 32


Removed: r4c5#6
size = 31


Removed: r4c4#3
size = 30


Removed: r4c3#4
size = 29


Removed: r4c2#1
size = 28


Removed: r4c1#2
size = 27


Removed: r3c9#6
size = 26


Removed: r3c8#5
size = 25


Removed: r3c7#4
size = 24


Removed: r3c6#3
size = 23


Removed: r3c5#2
size = 22


Removed: r3c4#1
size = 21


Removed: r3c3#9
size = 20


Removed: r3c2#8
size = 19


Removed: r3c1#7
size = 18


Removed: r2c9#3
size = 17


Removed: r2c8#2
size = 16


Removed: r2c7#1
size = 15


Removed: r2c6#9
size = 14


Removed: r2c5#8
size = 13


Removed: r2c4#7
size = 12


Removed: r2c3#6
size = 11


Removed: r2c2#5
size = 10


Removed: r2c1#4
size = 9


Removed: r1c9#9
size = 8


Removed: r1c8#8
size = 7


Removed: r1c7#7
size = 6


Removed: r1c6#6
size = 5


Removed: r1c5#5
size = 4


Removed: r1c4#4
size = 3


Removed: r1c3#3
size = 2


Removed: r1c2#2
size = 1


Removed: r1c1#1
size = 0
